{
    "plots" : {
        "type"     : "legend",
        "simulation_dir"   : "/home/ivan/ATC/Tools/booksim-unican/scripts/booksim_launcher/results/2019/2019_11_21/smart_8x8_mesh/",
        "simulation_files" :    [
            "smart_8x8_mesh_traffic_uniform_packet_size_1_smart_type_nebb_vct_opt_smart_priority_local_smart_dimensions_oneD_smart_max_hops_1_vc_buf_size_10_num_vcs_1.csv",
            "smart_8x8_mesh_traffic_uniform_packet_size_1_smart_type_nebb_vct_opt_smart_priority_local_smart_dimensions_oneD_smart_max_hops_2_vc_buf_size_10_num_vcs_1.csv",
            "smart_8x8_mesh_traffic_uniform_packet_size_1_smart_type_nebb_vct_opt_smart_priority_local_smart_dimensions_oneD_smart_max_hops_4_vc_buf_size_10_num_vcs_1.csv",
            "smart_8x8_mesh_traffic_uniform_packet_size_1_smart_type_nebb_vct_opt_smart_priority_local_smart_dimensions_oneD_smart_max_hops_8_vc_buf_size_10_num_vcs_1.csv",
            "smart_8x8_mesh_traffic_uniform_packet_size_1_smart_type_nebb_vct_la_smart_priority_local_smart_dimensions_oneD_smart_max_hops_1_vc_buf_size_10_num_vcs_1.csv",
            "smart_8x8_mesh_traffic_uniform_packet_size_1_smart_type_nebb_vct_la_smart_priority_local_smart_dimensions_oneD_smart_max_hops_2_vc_buf_size_10_num_vcs_1.csv",
            "smart_8x8_mesh_traffic_uniform_packet_size_1_smart_type_nebb_vct_la_smart_priority_local_smart_dimensions_oneD_smart_max_hops_4_vc_buf_size_10_num_vcs_1.csv",
            "smart_8x8_mesh_traffic_uniform_packet_size_1_smart_type_nebb_vct_la_smart_priority_local_smart_dimensions_oneD_smart_max_hops_8_vc_buf_size_10_num_vcs_1.csv"
        ],
        "legend"    : [
            "SMART++    | 1",
            "S-SMART++ | 1",
            "SMART++    | 4",
            "S-SMART++ | 4",
            "SMART++    | 8",
            "S-SMART++ | 8",
            "SMART++    | 16",
            "S-SMART++ | 16"
        ],
        "disable_legend" : "0",
        "legend_columns" : "4",
        "colors"    : [
            "'black'",
            "colormap[0]",
            "'gray'",
            "colormap[1]",
            "'silver'",
            "colormap[2]",
            "'gainsboro'",
            "colormap[3]"
        ],
        "linestyle" : [
            "-",
            "-",
            "-",
            "-",
            "-",
            "-",
            "-",
            "-"
        ],
        "markers"   : [
            ".",
            "*",
            ".",
            "*",
            ".",
            "*",
            ".",
            "*"
        ],
        "legend_outside" : "0",
        "markevery" : "2",
        "markersize" : "4",
        "legend_title"	   : "SMART type | HPCmax",
        "x-axis"   : "load",
        "y-axis"   : "eval((1-$(bypassed_flits))*100)",
        "x-label"  : "Offered load (%)",
        "y-label"  : "Buffered flits (%)",
        "y-min"    : "0",
        "y-max"    : "90",
        "x-min"    : "0.0",
        "x-max"    : "50",
		"figsize"  : "(3.2,2)"
    }
}
