{
    "plots" : {
        "type"     : "legend",
        "simulation_dir"   : "/home/iperez/ATC/Tools/booksim-unican/scripts/booksim_launcher/results/2020/2020_07_24/smart_8x8_mesh/",
        "simulation_files" :    [
            "smart_8x8_mesh_traffic_uniform_smart_max_hops_8_num_vcs_1_vc_buf_size_1_smart_priority_local_smart_dimensions_oneD_smart_type_classic_packet_size_1.csv",
            "smart_8x8_mesh_traffic_uniform_smart_max_hops_8_num_vcs_2_vc_buf_size_1_smart_priority_local_smart_dimensions_oneD_smart_type_classic_packet_size_1.csv",
            "smart_8x8_mesh_traffic_uniform_smart_max_hops_8_num_vcs_4_vc_buf_size_1_smart_priority_local_smart_dimensions_oneD_smart_type_classic_packet_size_1.csv",
            "smart_8x8_mesh_traffic_uniform_smart_max_hops_8_num_vcs_8_vc_buf_size_1_smart_priority_local_smart_dimensions_oneD_smart_type_classic_packet_size_1.csv",
            "smart_8x8_mesh_traffic_uniform_smart_max_hops_8_num_vcs_1_vc_buf_size_1_smart_priority_local_smart_dimensions_oneD_smart_type_nebb_vct_opt_packet_size_1.csv",
            "smart_8x8_mesh_traffic_uniform_smart_max_hops_8_num_vcs_1_vc_buf_size_2_smart_priority_local_smart_dimensions_oneD_smart_type_nebb_vct_opt_packet_size_1.csv",
            "smart_8x8_mesh_traffic_uniform_smart_max_hops_8_num_vcs_1_vc_buf_size_4_smart_priority_local_smart_dimensions_oneD_smart_type_nebb_vct_opt_packet_size_1.csv",
            "smart_8x8_mesh_traffic_uniform_smart_max_hops_8_num_vcs_1_vc_buf_size_8_smart_priority_local_smart_dimensions_oneD_smart_type_nebb_vct_opt_packet_size_1.csv"
        ],
        "legend"    : [
            "SMART - 1x1 slots",
            "SMART++ - 1x1 slots",
            "SMART - 2x1 slots",
            "SMART++ - 1x2 slots",
            "SMART - 4x1 slots",
            "SMART++ - 1x4 slots",
            "SMART - 8x1 slots",
            "SMART++ - 1x8 slots"
        ],
        "disable_legend" : "1",
        "colors"    : [
            "'black'",
            "colormap[0]",
            "'grey'",
            "colormap[1]",
            "'silver'",
            "colormap[2]",
            "'whitesmoke'",
            "colormap[3]"
        ],
        "linestyle" : [
            "-",
            "-",
            "-",
            "-",
            "-",
            "-",
            "-",
            "-"
        ],
        "markers"   : [
            "o",
            "*",
            "o",
            "*",
            "o",
            "*",
            "o",
            "*"
        ],
        "legend_outside" : "0",
        "legend_columns" : "4",
        "markevery" : "2",
        "markersize" : "6",
        "title_old"	   : "8x8 Mesh\n, 1-flit packets, Random Uniform",
        "x-axis"   : ["eval(64*16*0.09965*${avg_sent_flits})",
                      "eval(64*16*0.08761*${avg_sent_flits})",
                      "eval(64*16*0.07307*${avg_sent_flits})",
                      "eval(64*16*0.05164*${avg_sent_flits})",
                      "eval(64*16*0.09965*${avg_sent_flits})",
                      "eval(64*16*0.09996*${avg_sent_flits})",
                      "eval(64*16*0.09757*${avg_sent_flits})",
                      "eval(64*16*0.09364*${avg_sent_flits})"
                    ],
        "y-axis"   : ["eval(1/0.09965*${avg_plat})",
                      "eval(1/0.08761*${avg_plat})",
                      "eval(1/0.07307*${avg_plat})",
                      "eval(1/0.05164*${avg_plat})",
                      "eval(1/0.09965*${avg_plat})",
                      "eval(1/0.09996*${avg_plat})",
                      "eval(1/0.09757*${avg_plat})",
                      "eval(1/0.09364*${avg_plat})"
                    ],
        "x-label"  : "Offered load (GB/s)",
        "y-label"  : "Packet latency (ns)",
        "y-min"    : "0",
        "y-max"    : "400",
        "x-min"    : "0.0",
        "x-max"    : "45",
        "figsize"  : "(4,2)"
    }
}
