{
    "plots" : {
        "type"     : "custom",
        "simulation_dir"   : "/home/iperez/ATC/Tools/",
        "simulation_files" :    [
			"booksim-unican/scripts/booksim_launcher/results/2020/2020_05_18/ssmart_4x4_mesh/smart_4x4_mesh_traffic_uniform_smart_max_hops_1_num_vcs_4_vc_buf_size_4_smart_priority_local_smart_dimensions_nD_smart_type_nebb_vct_la_packet_size_1.csv",
			"booksim-unican/scripts/booksim_launcher/results/2020/2020_05_18/ssmart_4x4_mesh/smart_4x4_mesh_traffic_uniform_smart_max_hops_2_num_vcs_4_vc_buf_size_4_smart_priority_local_smart_dimensions_nD_smart_type_nebb_vct_la_packet_size_1.csv",
			"booksim-unican/scripts/booksim_launcher/results/2020/2020_05_18/ssmart_4x4_mesh/smart_4x4_mesh_traffic_uniform_smart_max_hops_3_num_vcs_4_vc_buf_size_4_smart_priority_local_smart_dimensions_nD_smart_type_nebb_vct_la_packet_size_1.csv"
        ],
        "legend"    : [
			"SMART++ - PS=1",
			"SMART++ - PS=5",
			"SuperSMART++ - PS=1"
        ],
        "disable_legend" : "1",
        "colors"    : [
            "'black'",
            "'lightgray'",
            "colormap[0]"
        ],
        "linestyle" : [
            "-",
            "-",
            "-",
            "-"
        ],
        "markers"   : [
            ".",
            ".",
            "*",
            "*"
        ],
        "legend_outside" : "0",
        "markevery" : "2",
        "markersize" : "4",
		"title_old"	   : "8x8 Mesh\n, 1-flit packets, Random Uniform",
        "x-axis"   : "load",
        "y-axis"   : "avg_plat",
        "x-label"  : "Offered load (%)",
        "y-label"  : "Buffered flits (%)",
        "y-min"    : "0",
        "y-max"    : "15",
        "x-min"    : "0.0",
        "x-max"    : "100",
		"figsize"  : "(3.2,2)"
    }
}
