{
    "plots" : {
        "type"     : "custom-multiclass",
        "classes"  : ["3","3","3","3"],
        "simulation_files" :    [
            "../booksim_launcher/results/2018/2018_Apr_02/bypass_router_shared_buf_bimodal_80_20/cmesh_bypass_no_arb_router_shared_buf_bimodal_80_20/cmesh_bypass_no_arb_router_shared_buf_bimodal_80_20_num_vcs_2_buf_size_12_k_8_8_c_2_2_lookaheads_kill_flits_0_traffic_uniform.csv",
            "../booksim_launcher/results/2018/2018_Apr_02/bypass_router_shared_buf_bimodal_80_20/cmesh_bypass_arb_router_shared_buf_bimodal_80_20/cmesh_bypass_arb_router_shared_buf_bimodal_80_20_num_vcs_2_buf_size_12_k_8_8_c_2_2_lookaheads_kill_flits_0_traffic_uniform.csv",
            "../booksim_launcher/results/2018/2018_Apr_02/bypass_router_shared_buf_bimodal_80_20/cmesh_hybrid_simplified_router_shared_buf_bimodal_80_20/cmesh_hybrid_simplified_router_shared_buf_bimodal_80_20_num_vcs_2_buf_size_12_k_8_8_c_2_2_lookaheads_kill_flits_0_traffic_uniform.csv"

        ],
        "legend"    : [
            "Baseline",
            "Baseline + Arb.",
            "Hybrid Simpl."
        ],
        "disable_legend" : "1",
        "colors"    : [
            "'black'",
            "'gray'",
            "colormap[0]"
        ],
        "linestyle" : [
            "-",
            "-",
            "-"
        ],
        "markers"   : [
            "v",
            "^",
            "o"
        ],
		"markersize" : "7",
        "legend_outside" : "0",
        "output_old"    : "images/2018_Apr_02/cmesh_8x8_c4_uniform_vcs_1_shared_buf_bimodal_80_20_buf_size_12_lookaheads_kill_flits_0_avg_plat.pdf",
        "x-axis"    : "load",
        "y-axis"   : "eval($(avg_sent_flits)*100)",
        "x-label"  : "Offered load (%)",
        "y-label"  : "Throughput (%)",
        "y-min"    : "6",
        "y-max"    : "9",
        "x-min"    : "6",
        "x-max"    : "10.5",
		"figsize"  : "4,2.5"
    }

}
