{
    "plots" : {
        "type"     : "custom",
        "simulation_dir"   : "/tmp/results/iq_8x8_mesh/",
        "simulation_files" :    [
            "iq_8x8_mesh_num_vcs_1_vc_buf_size_5.csv",
            "iq_8x8_mesh_num_vcs_4_vc_buf_size_5.csv",
            "iq_8x8_mesh_num_vcs_1_vc_buf_size_20.csv",
            "iq_8x8_mesh_num_vcs_4_vc_buf_size_20.csv"
        ],
        "legend"    : ["1x5 slots", "4x5 slots", "1x20 slots","4x20 slots"],
        "colors"    : ["'black'", "'gray'", "colormap[0]", "colormap[1]"
        ],
        "x-axis"   : "load",
        "y-axis"   : "avg_plat",
        "y-min"    : "0",
        "y-max"    : "80",
        "x-min"    : "0",
        "x-max"    : "50",
        "x-label"  : "Offered load (%)",
        "y-label"  : "Packet latency (cycles)"
    }
}
