{
    "plots" : {
        "type"     : "custom",
        "simulation_dir"   : "/home/iperez/ATC/Tools/booksim-unican/scripts/booksim_launcher/results/papers/2020-TC/MR/2_3_hpcm_anal/",
        "simulation_files" :    [
            "smart_16x16_mesh_smart_max_hops_1.csv",
            "smart_16x16_mesh_smart_max_hops_2.csv",
            "smart_16x16_mesh_smart_max_hops_4.csv",
            "smart_16x16_mesh_smart_max_hops_7.csv",
            "smart_16x16_mesh_smart_max_hops_15.csv",
            "ssmart++_16x16_mesh_smart_max_hops_1.csv",
            "ssmart++_16x16_mesh_smart_max_hops_2.csv",
            "ssmart++_16x16_mesh_smart_max_hops_4.csv",
            "ssmart++_16x16_mesh_smart_max_hops_7.csv",
            "ssmart++_16x16_mesh_smart_max_hops_15.csv"
        ],
        "legend"    : [
            "SMART-1",
            "SMART-2",
            "SMART-4",
            "SMART-7",
            "SMART-15",
            "S-SMART++-1",
            "S-SMART++-2",
            "S-SMART++-4",
            "S-SMART++-7",
            "S-SMART++-15"
        ],
        "disable_legend" : "1",
        "colors"    : [
            "'black'",
            "'grey'",
            "'silver'",
            "'gainsboro'",
            "'whitesmoke'",
            "colormap[0]",
            "colormap[1]",
            "colormap[2]",
            "colormap[3]",
            "colormap[4]"
        ],
        "linestyle" : [
            "-",
            "-",
            "-",
            "-",
            "-",
            "-",
            "-",
            "-",
            "-",
            "-"
        ],
        "markers"   : [
            "o",
            "o",
            "o",
            "o",
            "o",
            "*",
            "*",
            "*",
            "*",
            "*"
        ],
        "legend_outside" : "0",
        "legend_columns" : "3",
        "markevery" : "4",
        "markersize" : "6",
        "title_old"	   : "8x8 Mesh\n, 1-flit packets, Random Uniform",
        "x-axis"   : "load",
        "y-axis"   : "avg_plat",
        "x-label"  : "Offered load (%)",
        "y-label"  : "Packet lat. (cycles)",
        "y-min"    : "0",
        "y-max"    : "45",
        "x-min"    : "0.0",
        "x-max"    : "25",
        "figsize"  : "(3.25,2)"
    }
}
