{
    "plots" : {
        "type"     : "legend",
        "simulation_files" :    [
		"../booksim_launcher/results/2020/2020_04_06/bypass_router_shared_buf_bimodal_80_20/cmesh_bypass_arb_router_shared_buf_bimodal_80_20/cmesh_bypass_arb_router_shared_buf_bimodal_80_20_num_vcs_1_buf_size_2_k_8_8_c_2_2_lookaheads_kill_flits_0_traffic_uniform.csv",
		"../booksim_launcher/results/2020/2020_04_06/bypass_router_shared_buf_bimodal_80_20/cmesh_bypass_arb_router_shared_buf_bimodal_80_20/cmesh_bypass_arb_router_shared_buf_bimodal_80_20_num_vcs_2_buf_size_4_k_8_8_c_2_2_lookaheads_kill_flits_0_traffic_uniform.csv",
		"../booksim_launcher/results/2020/2020_04_06/bypass_router_shared_buf_bimodal_80_20/cmesh_bypass_arb_router_shared_buf_bimodal_80_20/cmesh_bypass_arb_router_shared_buf_bimodal_80_20_num_vcs_3_buf_size_8_k_8_8_c_2_2_lookaheads_kill_flits_0_traffic_uniform.csv",
		"../booksim_launcher/results/2020/2020_04_06/bypass_router_shared_buf_bimodal_80_20/cmesh_hybrid_simplified_router_shared_buf_bimodal_80_20/cmesh_hybrid_simplified_router_shared_buf_bimodal_80_20_num_vcs_1_buf_size_2_k_8_8_c_2_2_lookaheads_kill_flits_0_traffic_uniform.csv",
		"../booksim_launcher/results/2020/2020_04_06/bypass_router_shared_buf_bimodal_80_20/cmesh_hybrid_simplified_router_shared_buf_bimodal_80_20/cmesh_hybrid_simplified_router_shared_buf_bimodal_80_20_num_vcs_2_buf_size_4_k_8_8_c_2_2_lookaheads_kill_flits_0_traffic_uniform.csv",
		"../booksim_launcher/results/2020/2020_04_06/bypass_router_shared_buf_bimodal_80_20/cmesh_hybrid_simplified_router_shared_buf_bimodal_80_20/cmesh_hybrid_simplified_router_shared_buf_bimodal_80_20_num_vcs_3_buf_size_8_k_8_8_c_2_2_lookaheads_kill_flits_0_traffic_uniform.csv"

        ],
        "legend"    : [
	    "WH - Baseline+ Arb. - 2 slots",
	    "NEBB - 2 slots",
	    "WH - Baseline+ Arb. - 3 slots",
	    "NEBB - 3 slots",
	    "WH - Baseline+ Arb. - 4 slots",
	    "NEBB - 4 slots"
        ],
		"legend_columns" : "3",
        "disable_legend" : "0",
        "colors"    : [
            "'black'",
            "colormap[2]",
            "'darkgray'",
            "colormap[1]",
            "'lightgray'",
            "colormap[0]"
        ],
        "linestyle" : [
            "-",
            "-",
            "-",
            "-",
            "-",
            "-",
            "-",
            "-"
        ],
        "markers"   : [
            "o",
            "*",
            "o",
            "*",
            "o",
            "*"
        ],
        "legend_outside" : "0",
		"title"	   : "4x4 Mesh, Buffer Size: 1\nHPCMax: 4, Single-flit traffic, Random Uniform",
        "x-axis"   : "load",
        "y-axis"   : [
						"avg_plat",
						"avg_plat",
						"avg_plat",
						"avg_plat",
						"eval($(avg_plat)-3)",
						"eval($(avg_plat)-3)",
						"eval($(avg_plat)-3)",
						"eval($(avg_plat)-3)"
					],
        "x-label"  : "Offered load (%)",
        "y-label"  : "Packet latency (Cycles)",
        "y-min"    : "0",
        "y-max"    : "25",
        "x-min"    : "0.0",
        "x-max"    : "100",
		"figsize"  : "(7,6)"
    }
}
