{
    "plots" : {
        "type"     : "custom",
        "simulation_files" :    [
		"../booksim_launcher/results/2020/2020_04_17/bypass_router_shared_buf/cmesh_bypass_arb_router_shared_buf/cmesh_bypass_arb_router_shared_buf_bimodal_80_20_num_vcs_1_buf_size_5_k_8_8_c_2_2_packet_size_5_traffic_uniform.csv",
		"../booksim_launcher/results/2020/2020_04_17/cmesh_hybrid_router_shared_buf/cmesh_hybrid_router_shared_buf/cmesh_hybrid_router_shared_buf_num_vcs_1_buf_size_5_k_8_8_c_2_2_packet_size_5_traffic_uniform.csv"

        ],
        "legend"    : [
	    "Baseline WH w Arb. - 1VCs 2 flits",
	    "Baseline WH w Arb. - 2VCs 3 flits",
	    "Baseline WH w Arb. - 3VCs 8 flits",
	    "Hybrid - 1VCs 2 flits",
	    "Hybrid - 2VCs 3 flits",
	    "Hybrid - 3VCs 8 flits"
        ],
        "disable_legend" : "1",
        "colors"    : [
            "'black'",
            "'darkgray'",
            "'lightgray'",
            "colormap[0]",
            "colormap[1]",
            "colormap[2]"
        ],
        "linestyle" : [
            "-",
            "-",
            "-",
            "-",
            "-",
            "-",
            "-",
            "-",
            "-",
            "-"
        ],
        "markers"   : [
            "o",
            "o",
            "o",
            "*",
            "*",
            "*"
        ],
        "legend_outside" : "0",
	"title_a"    : "Bypass router: Empty VC vs Baseline WH.\nC4-Mesh 8x8; Packet Size = Bimodal; VC Buf Size: 10; Random Uniform",
        "output_asd"   : "images/2019/2019_Jan_23/empty_vc_lat_bimodal_private_buf_5.pdf",
        "x-axis"   : "load",
        "y-axis"   : "avg_plat",
        "x-label"  : "Offered load (%)",
        "y-label"  : "Avg. Packet Latency (Cycles)",
        "y-min"    : "10",
        "y-max"    : "35",
        "x-min"    : "0.0",
        "x-max"    : "8",
	"figsize"  : "4,2.5"
    }
}
