{
    "plots" : {
        "type"     : "custom",
        "simulation_dir"   : "/home/iperez/ATC/Tools/booksim-unican/scripts/booksim_launcher/results/2020/2020_06_09/smart_8x8_mesh/",
        "simulation_files" :    [
            "smart_8x8_mesh_traffic_bitcomp_smart_max_hops_7_num_vcs_1_vc_buf_size_10_smart_priority_local_smart_dimensions_oneD_smart_type_nebb_vct_opt_packet_size_1.csv",
            "smart_8x8_mesh_traffic_bitcomp_smart_max_hops_7_num_vcs_1_vc_buf_size_10_smart_priority_local_smart_dimensions_oneD_smart_type_nebb_vct_opt_packet_size_5.csv",
            "smart_8x8_mesh_traffic_bitcomp_smart_max_hops_7_num_vcs_1_vc_buf_size_10_smart_priority_local_smart_dimensions_oneD_smart_type_nebb_vct_la_packet_size_1.csv",
            "smart_8x8_mesh_traffic_bitcomp_smart_max_hops_7_num_vcs_1_vc_buf_size_10_smart_priority_local_smart_dimensions_oneD_smart_type_nebb_vct_la_packet_size_5.csv"
        ],
        "legend"    : [
			"SMART++ - PS=1",
			"SMART++ - PS=5",
			"SuperSMART++ - PS=1",
			"SuperSMART++ - PS=5"
        ],
        "disable_legend" : "1",
        "colors"    : [
            "'black'",
            "'lightgray'",
            "colormap[0]",
            "colormap[1]"
        ],
        "linestyle" : [
            "-",
            "-",
            "-",
            "-"
        ],
        "markers"   : [
            "o",
            "o",
            "*",
            "*"
        ],
        "legend_outside" : "0",
        "markevery" : "2",
        "markersize" : "6",
        "title_old"	   : "8x8 Mesh\n, 1-flit packets, Bit-Complement",
        "x-axis"   : "load",
        "y-axis"   : "avg_plat",
        "x-label"  : "Offered load (%)",
        "y-label"  : "Packet latency (cycles)",
        "y-min"    : "0",
        "y-max"    : "35",
        "x-min"    : "0.0",
        "x-max"    : "25",
        "figsize"  : "(4,2)"
    }
}
