{
    "plots" : {
        "type"     : "custom",
        "simulation_files" :    [
            "../booksim_launcher/results/2018/2018_dec_11/bypass_arb_8x8_c4_mesh/bypass_arb_8x8_c4_mesh_num_vcs_1_bypass_empty_vc_1_traffic_uniform_packet_size_1.csv",
            "../booksim_launcher/results/2018/2018_dec_11/bypass_arb_8x8_c4_mesh/bypass_arb_8x8_c4_mesh_num_vcs_2_bypass_empty_vc_1_traffic_uniform_packet_size_1.csv",
            "../booksim_launcher/results/2018/2018_dec_11/bypass_arb_8x8_c4_mesh/bypass_arb_8x8_c4_mesh_num_vcs_4_bypass_empty_vc_1_traffic_uniform_packet_size_1.csv",
            "../booksim_launcher/results/2018/2018_dec_11/bypass_arb_8x8_c4_mesh/bypass_arb_8x8_c4_mesh_num_vcs_8_bypass_empty_vc_1_traffic_uniform_packet_size_1.csv",
            "../booksim_launcher/results/2018/2018_dec_11/bypass_arb_8x8_c4_mesh/bypass_arb_8x8_c4_mesh_num_vcs_12_bypass_empty_vc_1_traffic_uniform_packet_size_1.csv",
            "../booksim_launcher/results/2018/2018_dec_11/bypass_arb_8x8_c4_mesh/bypass_arb_8x8_c4_mesh_num_vcs_1_bypass_empty_vc_0_traffic_uniform_packet_size_1.csv",
            "../booksim_launcher/results/2018/2018_dec_11/bypass_arb_8x8_c4_mesh/bypass_arb_8x8_c4_mesh_num_vcs_2_bypass_empty_vc_0_traffic_uniform_packet_size_1.csv",
            "../booksim_launcher/results/2018/2018_dec_11/bypass_arb_8x8_c4_mesh/bypass_arb_8x8_c4_mesh_num_vcs_4_bypass_empty_vc_0_traffic_uniform_packet_size_1.csv",
            "../booksim_launcher/results/2018/2018_dec_11/bypass_arb_8x8_c4_mesh/bypass_arb_8x8_c4_mesh_num_vcs_8_bypass_empty_vc_0_traffic_uniform_packet_size_1.csv",
            "../booksim_launcher/results/2018/2018_dec_11/bypass_arb_8x8_c4_mesh/bypass_arb_8x8_c4_mesh_num_vcs_12_bypass_empty_vc_0_traffic_uniform_packet_size_1.csv"
        ],
        "legend"    : [
	    "Empty VC    - 1 VC",
	    "Empty VC    - 2 VC",
	    "Empty VC    - 4 VC",
	    "Empty VC    - 8 VC",
	    "Empty VC    - 12 VC",
	    "Baseline WH - 1 VC",
	    "Baseline WH - 2 VC",
	    "Baseline WH - 4 VC",
	    "Baseline WH - 8 VC",
	    "Baseline WH - 12 VC"
        ],
        "disable_legend" : "0",
        "colors"    : [
            "'black'",
            "'darkgray'",
	    "'gray'",
            "'lightgray'",
	    "'whitesmoke'",
            "colormap[0]",
            "colormap[1]",
            "colormap[2]",
            "colormap[3]",
            "colormap[4]"
        ],
        "linestyle" : [
            "-",
            "-",
            "-",
            "-",
            "-",
            "-",
            "-",
            "-",
            "-",
            "-"
        ],
        "markers"   : [
            "o",
            "o",
            "o",
            "o",
            "o",
            "*",
            "*",
            "*",
            "*",
            "*"
        ],
        "legend_outside" : "0",
	"title"    : "Bypass router: Empty VC vs Baseline WH.\nC4-Mesh 8x8; Packet Size = 1; VC Buf Size: 5; Random Uniform",
        "output"   : "images/2019/2019_Jan_11/2p.pdf",
        "x-axis"   : "load",
        "y-axis"   : "avg_plat",
        "x-label"  : "Offered load (%)",
        "y-label"  : "Avg. Packet Latency (Cycles)",
        "y-min"    : "15",
        "y-max"    : "60",
        "x-min"    : "0.0",
        "x-max"    : "11"
    }
}
