{
    "plots" : {
        "type"     : "custom",
        "simulation_dir"   : "/home/iperez/ATC/Tools/booksim-unican/scripts/booksim_launcher/results/papers/2020-TC/MR/2_1_bypa_mech_comp/",
        "simulation_files" :    [
            "hybrid_mesh_k_4.csv",
            "smart_4x4_mesh_smart_dimensions_oneD.csv",
            "smart_4x4_mesh_smart_dimensions_nD.csv",
            "ssmart++_4x4_mesh_smart_dimensions_oneD.csv"
        ],
        "legend"    : [
            "NEBB",
            "SMART_1D",
            "SMART_2D",
            "S-SMART++"
        ],
        "disable_legend" : "1",
        "colors"    : [
            "'black'",
            "'grey'",
            "'silver'",
            "colormap[0]"
        ],
        "linestyle" : [
            "-",
            "-",
            "-",
            "-",
            "-"
        ],
        "markers"   : [
            "o",
            "*",
            "v",
            "^"
        ],
        "legend_outside" : "0",
        "legend_columns" : "3",
        "markevery" : "4",
        "markersize" : "6",
        "title_old"	   : "8x8 Mesh\n, 1-flit packets, Random Uniform",
        "x-axis"   : "load",
        "y-axis"   : "avg_plat",
        "x-label"  : "Offered load (%)",
        "y-label"  : "Packet lat. (cycles)",
        "y-min"    : "0",
        "y-max"    : "16",
        "x-min"    : "0.0",
        "x-max"    : "85",
        "figsize"  : "(3,1.5)"
    }
}
