{
    "plots" : {
        "type"     : "custom",
        "simulation_dir"   : "/home/ivan/ATC/Tools/booksim-unican/scripts/booksim_launcher/results/2019/2019_12_05/smart_8x8_mesh/",
        "simulation_files" :    [
            "smart_8x8_mesh_smart_dimensions_oneD_num_vcs_1_smart_type_nebb_vct_opt_packet_size_1_smart_max_hops_8_vc_buf_size_10_smart_priority_local_traffic_transpose.csv",
            "smart_8x8_mesh_smart_dimensions_oneD_num_vcs_1_smart_type_nebb_vct_opt_packet_size_5_smart_max_hops_8_vc_buf_size_10_smart_priority_local_traffic_transpose.csv",
            "smart_8x8_mesh_smart_dimensions_oneD_num_vcs_1_smart_type_nebb_vct_la_packet_size_1_smart_max_hops_8_vc_buf_size_10_smart_priority_local_traffic_transpose.csv",
            "smart_8x8_mesh_smart_dimensions_oneD_num_vcs_1_smart_type_nebb_vct_la_packet_size_5_smart_max_hops_8_vc_buf_size_10_smart_priority_local_traffic_transpose.csv"
        ],
        "legend"    : [
			"SMART++ - PS=1",
			"SMART++ - PS=5",
			"SuperSMART++ - PS=1",
			"SuperSMART++ - PS=5"
        ],
        "disable_legend" : "1",
        "colors"    : [
            "'black'",
            "'lightgray'",
            "colormap[0]",
            "colormap[1]"
        ],
        "linestyle" : [
            "-",
            "-",
            "-",
            "-"
        ],
        "markers"   : [
            ".",
            ".",
            "*",
            "*"
        ],
        "legend_outside" : "0",
        "markevery" : "2",
        "markersize" : "4",
		"title_old"	   : "8x8 Mesh\n, 1-flit packets, Random Uniform",
        "x-axis"   : "load",
        "y-axis"   : "eval((1-$(bypassed_flits))*100)",
        "x-label"  : "Offered load (%)",
        "y-label"  : "Buffered flits (%)",
        "y-min"    : "0",
        "y-max"    : "85",
        "x-min"    : "0.0",
        "x-max"    : "20",
		"figsize"  : "(3.2,2)"
    }
}
