{
    "plots" : {
        "type"     : "custom-multiclass",
        "simulation_files" :    [
	    "../booksim_launcher/results/2019/2019_Jan_23/bypass_arb_8x8_c4_mesh_bimodal/bypass_arb_8x8_c4_mesh_bimodal_router_bypass_arb_num_vcs_1_bypass_empty_vc_1_traffic_uniform_vc_buf_size_10.csv",
	    "../booksim_launcher/results/2019/2019_Jan_23/bypass_arb_8x8_c4_mesh_bimodal/bypass_arb_8x8_c4_mesh_bimodal_router_bypass_arb_num_vcs_2_bypass_empty_vc_1_traffic_uniform_vc_buf_size_10.csv",
	    "../booksim_launcher/results/2019/2019_Jan_23/bypass_arb_8x8_c4_mesh_bimodal/bypass_arb_8x8_c4_mesh_bimodal_router_bypass_arb_num_vcs_4_bypass_empty_vc_1_traffic_uniform_vc_buf_size_10.csv",
	    "../booksim_launcher/results/2019/2019_Jan_23/bypass_arb_8x8_c4_mesh_bimodal/bypass_arb_8x8_c4_mesh_bimodal_router_bypass_arb_num_vcs_8_bypass_empty_vc_1_traffic_uniform_vc_buf_size_10.csv",
	    "../booksim_launcher/results/2019/2019_Jan_23/bypass_arb_8x8_c4_mesh_bimodal/bypass_arb_8x8_c4_mesh_bimodal_router_bypass_arb_num_vcs_16_bypass_empty_vc_1_traffic_uniform_vc_buf_size_10.csv",
	    "../booksim_launcher/results/2019/2019_Jan_23/bypass_arb_8x8_c4_mesh_bimodal/bypass_arb_8x8_c4_mesh_bimodal_router_bypass_arb_num_vcs_1_bypass_empty_vc_0_traffic_uniform_vc_buf_size_10.csv",
	    "../booksim_launcher/results/2019/2019_Jan_23/bypass_arb_8x8_c4_mesh_bimodal/bypass_arb_8x8_c4_mesh_bimodal_router_bypass_arb_num_vcs_2_bypass_empty_vc_0_traffic_uniform_vc_buf_size_10.csv",
	    "../booksim_launcher/results/2019/2019_Jan_23/bypass_arb_8x8_c4_mesh_bimodal/bypass_arb_8x8_c4_mesh_bimodal_router_bypass_arb_num_vcs_4_bypass_empty_vc_0_traffic_uniform_vc_buf_size_10.csv",
	    "../booksim_launcher/results/2019/2019_Jan_23/bypass_arb_8x8_c4_mesh_bimodal/bypass_arb_8x8_c4_mesh_bimodal_router_bypass_arb_num_vcs_8_bypass_empty_vc_0_traffic_uniform_vc_buf_size_10.csv",
	    "../booksim_launcher/results/2019/2019_Jan_23/bypass_arb_8x8_c4_mesh_bimodal/bypass_arb_8x8_c4_mesh_bimodal_router_bypass_arb_num_vcs_16_bypass_empty_vc_0_traffic_uniform_vc_buf_size_10.csv"
        ],
        "legend"    : [
	    "Empty VC    - 1 VC",
	    "Empty VC    - 2 VC",
	    "Empty VC    - 4 VC",
	    "Empty VC    - 8 VC",
	    "Empty VC    - 16 VC",
	    "Baseline WH - 1 VC",
	    "Baseline WH - 2 VC",
	    "Baseline WH - 4 VC",
	    "Baseline WH - 8 VC",
	    "Baseline WH - 16 VC"
        ],
        "disable_legend" : "1",
        "colors"    : [
            "'black'",
            "'darkgray'",
	    "'gray'",
            "'lightgray'",
            "'whitesmoke'",
            "colormap[0]",
            "colormap[1]",
            "colormap[2]",
            "colormap[3]",
            "colormap[4]"
        ],
        "linestyle" : [
            "-",
            "-",
            "-",
            "-",
            "-",
            "-",
            "-",
            "-",
            "-",
            "-"
        ],
        "markers"   : [
            "o",
            "o",
            "o",
            "o",
            "o",
            "*",
            "*",
            "*",
            "*",
            "*"
        ],
        "legend_outside" : "0",
	"title_a"    : "Bypass router: Empty VC vs Baseline WH.\nC4-Mesh 8x8; Packet Size = Bimodal; VC Buf Size: 10; Random Uniform",
        "output"   : "images/2019/2019_Jan_23/empty_vc_lat_bimodal_private_buf_10.pdf",
        "x-axis"   : "load",
        "y-axis"   : "avg_plat",
        "x-label"  : "Offered load (%)",
        "y-label"  : "Avg. Packet Latency (Cycles)",
        "y-min"    : "10",
        "y-max"    : "35",
        "x-min"    : "0.0",
        "x-max"    : "11",
	"figsize"  : "4,2.5"
    }
}
